{
    "name": "Infrastructure.Tools",
    "rootNamespace": "",
    "references": [
        "GUID:2768bbc090e2edd43b0812819c36094d",
        "GUID:f51ebe6a0ceec4240a699833d6309b23",
        "GUID:4129704b5a1a13841ba16f230bf24a57"
    ],
    "includePlatforms": [
        "Editor"
    ],
    "excludePlatforms": [],
    "allowUnsafeCode": false,
    "overrideReferences": false,
    "precompiledReferences": [],
    "autoReferenced": false,
    "defineConstraints": [],
    "versionDefines": [],
    "noEngineReferences": false
}